<?xml version="1.0" encoding="UTF-8"?>
<svg width="67px" height="72px" viewBox="0 0 67 72" version="1.1" xmlns="http://www.w3.org/2000/svg" xmlns:xlink="http://www.w3.org/1999/xlink">
    <!-- Generator: Sketch 51.3 (57544) - http://www.bohemiancoding.com/sketch -->
    <title>4</title>
    <desc>Created with Sketch.</desc>
    <defs>
        <polygon id="path-1" points="0.130513171 0.20124878 9.65664 0.20124878 9.65664 9.72730537 0.130513171 9.72730537"></polygon>
        <polygon id="path-3" points="0.130337561 0.307843902 9.65681561 0.307843902 9.65681561 9.83414634 0.130337561 9.83414634"></polygon>
        <polygon id="path-5" points="0.260499512 0.163106341 9.78673171 0.163106341 9.78673171 9.68958439 0.260499512 9.68958439"></polygon>
    </defs>
    <g id="Page-1" stroke="none" stroke-width="1" fill="none" fill-rule="evenodd">
        <g id="Zippserv-vs-Property-Portals" transform="translate(-975.000000, -2735.000000)">
            <g id="4" transform="translate(975.000000, 2735.139770)">
                <path d="M33.3423571,17.8160663 C23.6968156,17.8160663 15.8772644,25.6356176 15.8772644,35.281159 C15.8772644,44.9263493 23.6968156,52.7459005 33.3423571,52.7459005 C42.9882498,52.7459005 50.8074498,44.9267005 50.8074498,35.2815102 C50.8074498,25.6356176 42.9882498,17.8160663 33.3423571,17.8160663 M33.3423571,19.4759298 C42.057518,19.4759298 49.1475863,26.5663493 49.1475863,35.2815102 C49.1475863,43.99632 42.057518,51.0867395 33.3423571,51.0867395 C24.6271961,51.0867395 17.5371278,43.99632 17.5371278,35.281159 C17.5371278,26.565998 24.6271961,19.4759298 33.3423571,19.4759298" id="Fill-1" fill="#2EBA9D"></path>
                <g id="Group-5" transform="translate(28.448780, 0.149971)">
                    <mask id="mask-2" fill="white">
                        <use xlink:href="#path-1"></use>
                    </mask>
                    <g id="Clip-4"></g>
                    <path d="M4.89340098,0.201178537 C2.26276683,0.201178537 0.130513171,2.33378341 0.130513171,4.96476878 C0.130513171,7.59540293 2.26276683,9.72730537 4.89340098,9.72730537 C7.52403512,9.72730537 9.65699122,7.59540293 9.65664,4.96476878 C9.65664,2.33378341 7.52403512,0.201178537 4.89340098,0.201178537 M4.89340098,1.86069073 C6.60489366,1.86069073 7.99677659,3.25292488 7.99677659,4.96476878 C7.99677659,5.79329561 7.67400585,6.57300293 7.08817171,7.15918829 C6.50198634,7.74502244 5.72263024,8.06779317 4.89340098,8.06779317 C3.18225951,8.06779317 1.79002537,6.67555902 1.79002537,4.96476878 C1.79002537,3.25292488 3.18225951,1.86069073 4.89340098,1.86069073" id="Fill-3" fill="#2EBA9D" mask="url(#mask-2)"></path>
                </g>
                <g id="Group-8" transform="translate(28.448780, 61.964605)">
                    <mask id="mask-4" fill="white">
                        <use xlink:href="#path-3"></use>
                    </mask>
                    <g id="Clip-7"></g>
                    <path d="M4.89357659,0.307843902 C2.26294244,0.307843902 0.130337561,2.44009756 0.130337561,5.07108293 C0.130337561,7.70171707 2.26294244,9.83432195 4.89357659,9.83432195 C7.52421073,9.83432195 9.65681561,7.70171707 9.65681561,5.07108293 C9.65681561,2.44009756 7.52421073,0.307843902 4.89357659,0.307843902 M4.89357659,1.96770732 C6.60506927,1.96770732 7.9969522,3.35959024 7.9969522,5.07108293 C7.9969522,6.78257561 6.60506927,8.17445854 4.89357659,8.17445854 C3.1820839,8.17445854 1.79020098,6.78257561 1.79020098,5.07108293 C1.79020098,3.35959024 3.1820839,1.96770732 4.89357659,1.96770732" id="Fill-6" fill="#2EBA9D" mask="url(#mask-4)"></path>
                </g>
                <path d="M57.1580605,8.28993951 C54.5274263,8.28958829 52.3948215,10.4221932 52.3948215,13.0531785 C52.3948215,15.6834615 54.5274263,17.8160663 57.1580605,17.8160663 C59.7886946,17.8160663 61.9212995,15.6834615 61.9212995,13.0531785 C61.9212995,10.4221932 59.7886946,8.28993951 57.1580605,8.28993951 M57.1580605,9.94945171 C58.8695532,9.94945171 60.2614361,11.3416859 60.2614361,13.0531785 C60.2614361,14.76432 58.8695532,16.1565541 57.1580605,16.1565541 C55.446919,16.1565541 54.0546849,14.76432 54.0546849,13.0531785 C54.0546849,12.2239493 54.3774556,11.4445932 54.963641,10.8580566 C55.5498263,10.2722224 56.3291824,9.94945171 57.1580605,9.94945171" id="Fill-9" fill="#2EBA9D"></path>
                <g id="Group-13" transform="translate(56.897561, 30.354849)">
                    <mask id="mask-6" fill="white">
                        <use xlink:href="#path-5"></use>
                    </mask>
                    <g id="Clip-12"></g>
                    <path d="M5.02373854,0.163106341 C2.39310439,0.163106341 0.260499512,2.29536 0.260499512,4.92634537 C0.260499512,7.55697951 2.39310439,9.68958439 5.02373854,9.68958439 C7.65437268,9.68958439 9.78697756,7.55697951 9.78697756,4.92634537 C9.78697756,2.29536 7.65437268,0.163106341 5.02373854,0.163106341 M5.02373854,1.82296976 C6.73523122,1.82296976 8.12711415,3.21485268 8.12711415,4.92634537 C8.12711415,6.63783805 6.73523122,8.02972098 5.02373854,8.02972098 C3.31224585,8.02972098 1.92036293,6.63783805 1.92036293,4.92634537 C1.92036293,4.09746732 2.24313366,3.31776 2.8289678,2.73157463 C3.41515317,2.14574049 4.19486049,1.82296976 5.02373854,1.82296976" id="Fill-11" fill="#2EBA9D" mask="url(#mask-6)"></path>
                </g>
                <path d="M57.1580605,52.7459356 C54.5274263,52.7459356 52.3948215,54.8785405 52.3948215,57.5095259 C52.3948215,60.14016 54.5274263,62.2724137 57.1580605,62.2724137 C59.7886946,62.2727649 61.9212995,60.14016 61.9212995,57.5095259 C61.9212995,54.8785405 59.7886946,52.7459356 57.1580605,52.7459356 M57.1580605,54.405799 C58.8695532,54.405799 60.2614361,55.797682 60.2614361,57.5095259 C60.2614361,58.3380527 59.9386654,59.11776 59.3528312,59.7039454 C58.7666459,60.2901307 57.9869385,60.6125502 57.1580605,60.6125502 C55.446919,60.6125502 54.0546849,59.2206673 54.0546849,57.5095259 C54.0546849,56.6799454 54.3774556,55.9005893 54.963641,55.3147551 C55.5498263,54.7285698 56.3291824,54.405799 57.1580605,54.405799" id="Fill-14" fill="#2EBA9D"></path>
                <path d="M33.3421815,9.87762732 L33.3421815,17.816242" id="Stroke-16" stroke="#2EBA9D" stroke-width="1.6595122"></path>
                <path d="M33.3421815,52.7459356 L33.3421815,62.2724137" id="Stroke-18" stroke="#2EBA9D" stroke-width="1.6595122"></path>
                <path d="M53.9828605,16.2283785 L46.0438946,24.1673444" id="Stroke-20" stroke="#2EBA9D" stroke-width="1.6595122"></path>
                <path d="M53.9828605,54.3339746 L46.0438946,46.3950088" id="Stroke-22" stroke="#2EBA9D" stroke-width="1.6595122"></path>
                <path d="M50.8071337,35.2810185 L57.1582361,35.2810185" id="Stroke-24" stroke="#2EBA9D" stroke-width="1.6595122"></path>
                <path d="M9.52665366,8.28993951 L9.52630244,8.28993951 C6.89566829,8.28993951 4.76306341,10.4221932 4.76306341,13.0531785 C4.76306341,15.6834615 6.89566829,17.8160663 9.52630244,17.8160663 C12.1569366,17.8160663 14.2895415,15.6834615 14.2895415,13.0531785 C14.2895415,10.4225444 12.1569366,8.28993951 9.52665366,8.28993951 M9.52665366,9.94945171 C10.3555317,9.94945171 11.1348878,10.2725737 11.720722,10.8580566 C12.3069073,11.4445932 12.629678,12.2239493 12.629678,13.0531785 C12.629678,14.76432 11.2374439,16.1565541 9.52630244,16.1565541 C7.81480976,16.1565541 6.42292683,14.76432 6.42292683,13.0531785 C6.42292683,11.3416859 7.81516098,9.94945171 9.52665366,9.94945171" id="Fill-26" fill="#2EBA9D"></path>
                <path d="M4.76323902,30.5179551 C2.13260488,30.5179551 0,32.6502088 0,35.2811941 C0,37.9118283 2.13260488,40.0444332 4.76323902,40.0444332 C7.39352195,40.0444332 9.52612683,37.9118283 9.52612683,35.2811941 C9.52647805,32.6502088 7.39352195,30.5179551 4.76323902,30.5179551 M4.76323902,32.1778185 C5.59211707,32.1778185 6.37147317,32.5005893 6.95765854,33.0864234 C7.5438439,33.6726088 7.86661463,34.4523161 7.86661463,35.2811941 C7.86661463,36.9926868 6.47438049,38.3845698 4.76323902,38.3845698 C3.05174634,38.3845698 1.6595122,36.9926868 1.6595122,35.2811941 C1.6595122,33.5697015 3.05174634,32.1778185 4.76323902,32.1778185" id="Fill-28" fill="#2EBA9D"></path>
                <path d="M9.52630244,52.7459356 C6.89566829,52.7459356 4.76306341,54.8785405 4.76306341,57.5095259 C4.76306341,60.1398088 6.89566829,62.2724137 9.52595122,62.2724137 L9.52630244,62.2724137 C12.1569366,62.2724137 14.2895415,60.14016 14.2895415,57.5095259 C14.2895415,54.8785405 12.1569366,52.7459356 9.52630244,52.7459356 M9.52630244,54.405799 C10.3551805,54.405799 11.1345366,54.7285698 11.720722,55.3147551 C12.3069073,55.9005893 12.629678,56.6799454 12.629678,57.5095259 C12.629678,59.2206673 11.2374439,60.6125502 9.52595122,60.6125502 C7.81480976,60.6125502 6.42292683,59.2206673 6.42292683,57.5095259 C6.42292683,55.797682 7.81480976,54.405799 9.52630244,54.405799" id="Fill-30" fill="#2EBA9D"></path>
                <path d="M12.7017132,16.2283785 L20.640679,24.1673444" id="Stroke-32" stroke="#2EBA9D" stroke-width="1.6595122"></path>
                <path d="M12.7017132,54.3339746 L20.640679,46.3950088" id="Stroke-34" stroke="#2EBA9D" stroke-width="1.6595122"></path>
                <path d="M15.8772644,35.2810185 L9.52616195,35.2810185" id="Stroke-36" stroke="#2EBA9D" stroke-width="1.6595122"></path>
                <path d="M41.2807961,44.8074966 L41.2807961,41.7076332 C41.2807961,39.7418576 36.9144351,36.8685307 33.3421815,36.8685307 C29.7699278,36.8685307 25.4035668,39.7418576 25.4035668,41.7076332 L25.4035668,44.8074966" id="Stroke-38" stroke="#2EBA9D" stroke-width="1.6595122"></path>
                <path d="M33.3421815,25.7548566 C30.8794302,25.7548566 28.5789424,27.7455688 28.5789424,30.2012956 L28.5789424,32.4224078 C28.5789424,34.8781346 30.8794302,36.869198 33.3421815,36.869198 C35.8049327,36.869198 38.1054205,34.8781346 38.1054205,32.4224078 L38.1054205,30.2012956 C38.1054205,27.7455688 35.8049327,25.7548566 33.3421815,25.7548566 M33.3421815,27.4143688 C34.9665717,27.4143688 36.4455571,28.742681 36.4455571,30.2012956 L36.4455571,32.4224078 C36.4455571,33.8810224 34.9665717,35.2089834 33.3421815,35.2089834 C31.7177912,35.2089834 30.2388059,33.8810224 30.2388059,32.4224078 L30.2388059,30.2012956 C30.2388059,28.742681 31.7177912,27.4143688 33.3421815,27.4143688" id="Fill-40" fill="#2EBA9D"></path>
            </g>
        </g>
    </g>
</svg>